#
# Prefix definitions
#
# Author: Hj. Malthaner
# Creation date: 10-Aug-2002
# Last update: 26-Dec-2003
#

#
# Five lines per prefix definition
#
# name of prefix
# name of affected attribute
# base strength of effect, random range
# item value modifier
# chance to create a cursed item
#


test1
HPmax
owner
1, 5
80
0
----------
test2
HPmax
owner
6, 5 
100
0
----------
test3
Cdamage
self
3, 17
30
0
